<svg xmlns="http://www.w3.org/2000/svg" width="6.825" height="13.648">
    <path data-name="facebook icon" d="M11.766 2.266h1.246V.1A16.089 16.089 0 0 0 11.2 0a2.882 2.882 0 0 0-3.031 3.207v1.911H6.187v2.426h1.982v6.1H10.6v-6.1h1.9l.3-2.426h-2.2V3.447c0-.7.189-1.181 1.166-1.181z" transform="translate(-6.187)" style="fill:#898787"/>
</svg>
