<svg xmlns="http://www.w3.org/2000/svg" width="13.583" height="13.648">
    <path data-name="whatsapp icon" d="M11.854 1.983a6.765 6.765 0 0 0-10.644 8.16l-.959 3.5 3.585-.94a6.756 6.756 0 0 0 3.232.823 6.766 6.766 0 0 0 4.786-11.543zM7.07 12.389a5.614 5.614 0 0 1-2.861-.784L4 11.483l-2.128.558.568-2.074-.134-.213a5.621 5.621 0 1 1 4.764 2.635zm3.083-4.21c-.169-.085-1-.493-1.155-.55s-.268-.084-.38.085-.436.55-.535.662-.2.127-.366.042a4.616 4.616 0 0 1-1.359-.838 5.1 5.1 0 0 1-.94-1.171c-.1-.169 0-.252.074-.345a4.78 4.78 0 0 0 .422-.578.311.311 0 0 0-.014-.3c-.042-.085-.38-.916-.521-1.255S5.1 3.65 5 3.645s-.211-.006-.324-.006a.621.621 0 0 0-.451.212 1.9 1.9 0 0 0-.591 1.41 3.287 3.287 0 0 0 .69 1.748A7.532 7.532 0 0 0 7.21 9.56a9.673 9.673 0 0 0 .963.356 2.317 2.317 0 0 0 1.064.067 1.741 1.741 0 0 0 1.141-.8 1.412 1.412 0 0 0 .1-.8c-.042-.07-.155-.113-.324-.2zm0 0" transform="translate(-.25)" style="fill:#898787;fill-rule:evenodd"/>
</svg>
